module gitlab.com/netclave/apis

go 1.14

require (
	github.com/golang/protobuf v1.4.2
	golang.org/x/net v0.0.0-20200707034311-ab3426394381
	google.golang.org/genproto v0.0.0-20200731012542-8145dea6a485
	google.golang.org/grpc v1.31.0
)
